<?xml version="1.0" encoding="utf-8"?>
<!-- Generator: Adobe Illustrator 25.2.0, SVG Export Plug-In . SVG Version: 6.00 Build 0)  -->
<svg version="1.1" id="Layer_1" xmlns="http://www.w3.org/2000/svg" xmlns:xlink="http://www.w3.org/1999/xlink" x="0px" y="0px"
	 viewBox="0 0 922.6 375.5" enable-background="new 0 0 922.6 375.5" xml:space="preserve">
<path fill="#40B7AD" d="M313.1,232.2c2.2-0.1,4.3-0.2,6.5-0.2c97.8,0,195.6-0.1,293.5,0c32,0,59.7-10.4,83.1-32.2
	c5.9-5.5,10.7-11.8,15.7-18c36.3,0,72.6,0.1,108.8,0.1c23,0,44,6.2,62.3,20.2c21.1,16.2,34,37.5,38,64c0.3,2.3,0.8,4.6,1.2,6.8
	c0.5,5.6,0.5,11.3,0,16.9c-4.5,46.8-42.7,83.3-89.2,85.2c-1.8,0.6-3.6,0.3-5.5,0.3c-132.7,0-265.3,0-398,0c-1.8,0-3.7,0.3-5.5-0.3
	c-16.5-0.2-32.1-4.5-46.8-11.7c-15.2-7.4-27.7-18.2-38.5-31.3c-12.9-15.6-20.4-33.4-24.4-52.9c-1.3-6.5-1.1-13.4-1.2-20.1
	C313,250.2,313.1,241.2,313.1,232.2z"/>
<g>
	<path fill="#6F2584" d="M313.1,232.2c-10.3-0.1-20.7-0.2-31-0.2c-55.3,0-110.6-0.1-165.9,0.1c-18.7,0.1-36.3-3.8-53-12.1
		c-13.9-6.9-26.2-16.4-35.8-28.5c-16.8-21-27.1-45-27.3-72.4c-0.3-38.3,0-76.6-0.2-115C0,0.2,1.5,0,4.7,0c46.7,0.1,93.3,0.1,140,0.1
		c156.8,0,313.6,0,470.4,0c31.9,0,59.6,11.1,82.3,33.4c19.5,19.1,30.8,42.5,33.8,69.8c3.1,28.1-3.4,53.7-18.9,77.2
		c-0.3,0.4-0.2,1-0.3,1.4c0.1,2.6-1.5,4.4-3,6.2c-19.9,25-45.7,39.8-77.3,44.5c-6.1,0.9-12.3,1-18.4,1c-97,0-193.9,0-290.9,0
		C319.2,233.5,316,234.2,313.1,232.2z"/>
	<path fill="#FDCE03" d="M138.8,88.8c7.6-10.7,18.1-13.6,30-12.8c8.1,0.5,14.9,3.5,20,9.7c2.5,3,3.7,3.6,6.9,0.5
		c14.1-14,39-13.8,51.1,0.2c7.7,8.9,9.9,19.9,10,31.2c0.2,16.1,0.1,32.3,0,48.5c0,6.2-1.4,7.5-7.8,7.5c-4.5,0-9,0-13.5,0
		c-6.7-0.1-7.6-0.9-7.6-7.4c0-15,0-30,0-45c0-1.2,0-2.3,0-3.5c-0.2-8.6-5.9-14.8-13.7-14.8c-7.8-0.1-14.2,6.4-14.3,14.9
		c-0.1,15.7,0,31.3,0,47c0,8-0.8,8.9-8.9,8.9c-4.2,0-8.3,0-12.5,0c-6.4-0.1-7.5-1.1-7.5-7.6c0-15.7,0-31.3,0-47
		c0-9.9-5-16-13.1-16.1c-8.4-0.1-15.1,7.1-15.2,16.5c-0.1,15.5,0,31,0,46.5c0,6.2-1.5,7.7-7.6,7.8c-5,0.1-10,0-15,0
		c-4.5,0-6.9-2.1-6.9-6.7c0-27.6,0-55.3,0-82.9c0-1.7,0.1-3.5,1.5-4.6c5.1-4.2,11.2-1.9,16.9-2c3.8,0,4.9,3.5,5.7,6.7
		C137.8,85.5,138.2,86.8,138.8,88.8z"/>
	<path fill="#FDCE03" d="M348.9,89.7c0.3-13.3,8.1-13.6,16.9-13c6.7,0.5,8.1,1.6,8.1,8.3c0,26.6,0,53.3,0,79.9
		c0,7.3-1.3,8.6-8.8,8.6c-2.3,0-4.7,0-7,0c-9,0-9,0-12.3-8.2c-0.3,0-0.7-0.1-0.8,0.1c-19,18.3-51.2,8.9-64.5-11.8
		c-11.1-17.3-12-35.5-1.7-53.4c10.1-17.6,26.1-25.5,46.4-24.3C334.3,76.6,341.8,81.1,348.9,89.7z"/>
	<path fill="#FDCE03" d="M576.7,86.5c10-9.4,20.8-12.2,32.7-9.9c14,2.7,23.7,14.5,25.5,31.4c2.1,19.9,0.6,39.9,0.9,59.9
		c0.1,3.8-2.1,5.8-6,5.8c-5.2,0-10.3,0-15.5,0c-6.3-0.1-7.3-1-7.3-7.2c0-15.7,0-31.3,0-47c0-9.5-6.3-16.4-15-16.5
		c-8.2-0.1-15.1,6.7-15.3,15.9c-0.3,15.3-0.1,30.7-0.1,46c0,7.8-1.1,8.8-9,8.8c-4.2,0-8.3,0-12.5,0c-6.3-0.1-7.9-1.7-7.9-8.1
		c0-25.7,0-51.3,0-77c0-10.7,0-21.3,0-32c0-6.2,1.6-7.7,7.7-7.7c4.3,0,8.7,0,13,0c7.8,0,8.8,1.1,8.8,9.1
		C576.7,67,576.7,76.2,576.7,86.5z"/>
	<path fill="#FDCE03" d="M501,75.8c10,0,19,2.8,27.3,8.3c4.4,3,5,5.5,2.4,10.1c-1.7,3-3.5,6-5.3,9c-3.4,5.6-5.3,6.1-10.8,2.8
		c-2.7-1.6-5.6-3-8.7-3.8c-9.6-2.3-18.7,1.6-23.5,9.9c-5.6,9.6-4.4,22.7,2.7,30.3c6.3,6.8,16.2,8.4,25.2,4.1
		c10.8-5.2,10.8-5.2,17.6,5c0.2,0.3,0.3,0.6,0.5,0.9c6.7,10.1,6.6,11.2-4.2,16.7c-19,9.7-37.5,8.7-54.3-4.4
		c-16.7-13-22.3-31-17.3-51.3c5-20.7,19.1-32.9,40-37c0.8-0.2,1.6-0.2,2.5-0.3C497,76,499,75.9,501,75.8z"/>
	<path fill="#FDCE03" d="M397.4,136.8c0-9.7-0.1-19.3,0.1-28.9c0.1-3.1-0.9-3.9-3.9-3.9c-9.1,0-9.5-0.6-9.5-9.7c0-3.3,0-6.7,0-10
		c0.1-5.6,1.5-7.4,7.1-7c5.5,0.5,6.5-1.6,6.4-6.6c-0.3-11.8-1.7-11.6,10.9-15.8c3.6-1.2,7.2-2.6,10.8-3.8c5.4-1.7,7.6-0.1,7.7,5.4
		c0.1,5.7,0.2,11.3,0,17c-0.1,2.8,0.7,3.6,3.6,3.7c12.3,0.3,12.3,0.4,12.3,12.9c0,0.5,0,1,0,1.5c0,9.4,1.6,13.2-12.1,12.3
		c-3.2-0.2-3.9,0.9-3.8,3.9c0.1,19.3,0.1,38.6,0.1,57.9c0,6.2-1.5,7.7-7.5,7.8c-4.8,0.1-9.7,0.1-14.5,0c-5.9-0.1-7.4-1.4-7.5-7.4
		C397.3,156.5,397.4,146.6,397.4,136.8z"/>
	<path fill="#6F2584" d="M499.9,273c14.5-12.1,34.6-3.4,41.5,9.7c9.3,18,1.4,45.2-23.5,47.9c-5.7,0.6-9.3-0.4-18.3-6.3
		c-2.8,4.3-11.3,6.8-16.3,4.7c-1.9-0.8-2.2-2.4-2.2-4.1c0-23.5,0-46.9,0-70.4c0-0.5-0.1-1.1,0.1-1.5c3.6-6.4,9.6-2.2,14.4-3.1
		c3.1-0.6,4.3,1.9,4.3,4.8C499.9,260.6,499.9,266.4,499.9,273z"/>
	<path fill="#6F2584" d="M738.2,304.3c-5.7,0-11.3,0.1-17,0c-3.7-0.1-3.9,1.5-2.5,4.3c2.8,5.2,7.5,6.9,13,6.8c3.1,0,6.2-1,9.1-2.3
		c2.2-1,3.7-4.2,6.5-2.8c3,1.5,4.9,4.5,6.9,7.1c1.5,2,0.5,3.6-1.2,5.1c-9.3,8.2-20.1,10.3-31.6,6.3c-11.9-4.2-19.6-12.7-21.3-25.3
		c-2.4-17.7,7.9-32.3,24.4-35.8c19.4-4.1,37.8,12.6,35.7,32.3c-0.3,3.3-2.1,4.3-5,4.3C749.6,304.3,743.9,304.3,738.2,304.3
		C738.2,304.3,738.2,304.3,738.2,304.3z"/>
	<path fill="#6F2584" d="M591.1,304.3c-5.5,0-11,0.2-16.5-0.1c-4.2-0.2-4,1.6-2.5,4.5c3,5.7,10.2,8,17.9,5.8
		c1.6-0.5,3.5-0.8,4.6-1.9c4.2-4,7-2.4,10.1,1.5c4.5,5.4,4.6,6.3-1,10.5c-10.6,8-26,8.1-37.3,0.1c-11.7-8.2-16.3-22.4-11.8-36.2
		c4.2-12.8,15.7-21.5,28.8-21.4c17.5,0,31.5,15.4,29.9,32.8c-0.3,3.1-1.7,4.5-4.7,4.4C602.8,304.2,597,304.3,591.1,304.3
		C591.1,304.3,591.1,304.3,591.1,304.3z"/>
	<path fill="#6F2684" d="M665.2,305.9c0-5.7-0.1-11.3,0.1-17c0.1-2.9-0.6-4.4-3.8-4c-3.4,0.4-4.8-1.5-4.7-4.8c0.1-2.2,0.1-4.3,0-6.5
		c-0.3-3.9,1-6.2,5.3-5.7c2.8,0.4,3.2-1.2,3.3-3.6c0.1-2.9-1.5-6.6,1.6-8.4c4.4-2.6,9.3-4.4,14.5-5.1c2-0.3,2.7,1.5,2.7,3.4
		c0,3.3,0.2,6.7,0,10c-0.2,2.9,0.9,3.7,3.7,3.7c6.5,0,6.5,0.2,6.5,6.9c0,1.3-0.1,2.7,0,4c0.5,4.6-1.6,6.6-6.1,6
		c-3.4-0.4-4.2,1-4.1,4.2c0.2,11.7,0,23.3,0.1,35c0.1,4.1-1.5,5.8-5.5,5.7c-14.1-0.2-13.5,1.9-13.4-12.9
		C665.2,313.3,665.2,309.6,665.2,305.9z"/>
	<path fill="#6F2584" d="M623.7,306.4c0-5.8-0.1-11.6,0.1-17.5c0.1-2.9-0.6-4.3-3.9-4c-4,0.4-5.3-1.8-5.1-5.5c0.1-1.8,0.2-3.7,0-5.5
		c-0.4-4.1,0.9-6.6,5.5-5.9c3.2,0.4,3.3-1.5,3.4-4c0.1-2.7-1.4-6.2,1.3-7.9c4.3-2.7,9.3-4.3,14.4-5.1c2.1-0.3,2.6,1.6,2.6,3.4
		c0,3.2,0.2,6.3,0,9.5c-0.3,3.4,1.1,4.5,4.3,4.1c4.6-0.7,6.4,1.5,6,6c-0.2,1.6-0.2,3.3,0,5c0.4,4.5-1.5,6.7-6,6
		c-3.8-0.5-4.3,1.4-4.2,4.6c0.2,11.5-0.1,23,0.1,34.4c0.1,4.4-1.7,5.9-5.9,5.8c-14.4-0.2-12.5,1.3-12.7-12.4
		C623.7,313.8,623.7,310.1,623.7,306.4z"/>
	<path fill="#6E2684" d="M787,276.1c1.6-2.1,2.4-3.5,3.6-4.6c7.2-6.7,22.3-5,27.6,3.1c0.9,1.3,0.7,2.5,0,3.7
		c-1.1,1.9-2.1,3.8-3.2,5.6c-3,4.9-4,5.1-8.9,1.9c-3.7-2.5-7.7-3.3-11.7-1c-3.8,2.3-5.6,5.6-5.5,10.3c0.3,9.6-0.1,19.3,0.1,28.9
		c0.1,4.4-1.6,5.9-5.9,5.8c-13.6-0.3-13,2-13-12.8c0-13.8,0-27.6,0-41.4c0-3.1-0.8-6.6,3.7-7.6c6.5-1.4,9.7,0,11.7,4.9
		C785.9,273.6,786.1,274.2,787,276.1z"/>
	<path fill="#6F2584" d="M321.4,149c-12.6,0.1-22.2-10.1-22.1-23.4c0.1-13.5,9.4-23.9,21.7-24c13-0.1,23.9,10.7,23.9,23.8
		C344.9,138.5,334.4,149,321.4,149z"/>
	<path fill="#40B7AD" d="M513.5,314c-8.4-0.1-15.3-7-15.3-15.2c0-8,7.3-15.4,15.3-15.4c8,0,14.6,7.3,14.4,15.9
		C527.6,307.8,521.5,314.1,513.5,314z"/>
	<path fill="#3DB7AD" d="M718.2,290.4c3-5,6.4-8.5,12-8.5c5.8,0,9.5,3.1,12.4,8.5C734.5,290.4,726.8,290.4,718.2,290.4z"/>
	<path fill="#3DB7AD" d="M596.1,290.9c-7.7,0-14.4,0-21.2,0c-0.9,0-2.3,0.4-2.5-0.8c-0.2-0.8,0.5-1.9,1-2.6c2.9-3.7,6.5-6,11.5-5.5
		C590.3,282.4,593.3,285.7,596.1,290.9z"/>
</g>
</svg>
