{
  "app": {
    "js": [
      "runtime.f3c78e.js",
      "vendor/app.c9fe2a.js",
      "app.026963.js"
    ],
    "css": [
      "app.711934.css"
    ],
    "dependencies": [
      "jquery"
    ]
  },
  "editor": {
    "js": [
      "runtime.f3c78e.js",
      "editor.5f39da.js"
    ],
    "css": [
      "editor.1fc2a8.css"
    ],
    "dependencies": [
      "wp-blocks"
    ]
  }
}